[
  {
    "title": "NIKE",
    "logoSrc": "assets/brands/nike-logo.png",
    "imgSrc": "assets/brands/hover/nike.jpg",
    "link": ""
  },
  {
    "title": "Ben Sherman",
    "logoSrc": "assets/brands/ben-sherman-logo.png",
    "imgSrc": "assets/brands/hover/ben-sherman.jpg",
    "link": ""
  },
  {
    "title": "Ralph Lauren",
    "logoSrc": "assets/brands/ralph-lauren-logo.png",
    "imgSrc": "assets/brands/hover/ralph-lauren.jpg",
    "link": ""
  },
  {
    "title": "Fred Perry",
    "logoSrc": "assets/brands/fred-perry.png",
    "imgSrc": "assets/brands/hover/fred-perry.jpg",
    "link": ""
  },
  {
    "title": "Everlast",
    "logoSrc": "assets/brands/everlast.png",
    "imgSrc": "assets/brands/hover/everlast.jpg",
    "link": ""
  },
  {
    "title": "Hugo Boss",
    "logoSrc": "assets/brands/hugo-boss.png",
    "imgSrc": "assets/brands/hover/hugo-boss.jpg",
    "link": ""
  },
  {
    "title": "Jack&Jones",
    "logoSrc": "assets/brands/jack&jones.png",
    "imgSrc": "",
    "link": ""
  },
  {
    "title": "Levis",
    "logoSrc": "assets/brands/levis.png",
    "imgSrc": "",
    "link": ""
  },
  {
    "title": "Selected",
    "logoSrc": "assets/brands/selected-homme.png",
    "imgSrc": "",
    "link": ""
  },
  {
    "title": "The North Face",
    "logoSrc": "assets/brands/the-north-face.png",
    "imgSrc": "",
    "link": "",
    "isLarge": true
  }
]